…
1.3. This table shows all entries in the gapminder data that have
experienced a drop in life expectancy.

``` r
lifeexp_drop <- gapminder %>%
  arrange(country, year) %>%
  group_by(country) %>%
  mutate(lifeExplag = lag(lifeExp)) %>%
  mutate(lifeExpdif = lifeExp - lifeExplag) %>%
  filter(lifeExpdif < 0)
lifeexp_drop
```

    ## # A tibble: 102 x 8
    ## # Groups:   country [52]
    ##    country  continent  year lifeExp     pop gdpPercap lifeExplag lifeExpdif
    ##    <fct>    <fct>     <int>   <dbl>   <int>     <dbl>      <dbl>      <dbl>
    ##  1 Albania  Europe     1992    71.6 3326498     2497.       72       -0.419
    ##  2 Angola   Africa     1987    39.9 7874230     2430.       39.9     -0.036
    ##  3 Benin    Africa     2002    54.4 7026113     1373.       54.8     -0.371
    ##  4 Botswana Africa     1992    62.7 1342614     7954.       63.6     -0.877
    ##  5 Botswana Africa     1997    52.6 1536536     8647.       62.7    -10.2  
    ##  6 Botswana Africa     2002    46.6 1630347    11004.       52.6     -5.92 
    ##  7 Bulgaria Europe     1977    70.8 8797022     7612.       70.9     -0.09 
    ##  8 Bulgaria Europe     1992    71.2 8658506     6303.       71.3     -0.15 
    ##  9 Bulgaria Europe     1997    70.3 8066057     5970.       71.2     -0.87 
    ## 10 Burundi  Africa     1992    44.7 5809236      632.       48.2     -3.48 
    ## # ... with 92 more rows

1.4. Gapminder data is filtered to show the max GDP per capita
experienced by each country.

``` r
max_gdp <- gapminder %>%
  group_by(country) %>%
  summarise(max(gdpPercap))
max_gdp
```

    ## # A tibble: 142 x 2
    ##    country     `max(gdpPercap)`
    ##    <fct>                  <dbl>
    ##  1 Afghanistan             978.
    ##  2 Albania                5937.
    ##  3 Algeria                6223.
    ##  4 Angola                 5523.
    ##  5 Argentina             12779.
    ##  6 Australia             34435.
    ##  7 Austria               36126.
    ##  8 Bahrain               29796.
    ##  9 Bangladesh             1391.
    ## 10 Belgium               33693.
    ## # ... with 132 more rows
…
table(uniquecontinent$continent)
```

    ## 
    ##   Africa Americas     Asia   Europe  Oceania 
    ##       52       25       33       30        2

Below is a table of countries associated with each continent.

``` r
uniquecontinent %>%
  arrange(continent)
```

    ## # A tibble: 142 x 2
    ##    country                  continent
    ##    <fct>                    <fct>    
    ##  1 Algeria                  Africa   
    ##  2 Angola                   Africa   
    ##  3 Benin                    Africa   
    ##  4 Botswana                 Africa   
    ##  5 Burkina Faso             Africa   
    ##  6 Burundi                  Africa   
    ##  7 Cameroon                 Africa   
    ##  8 Central African Republic Africa   
    ##  9 Chad                     Africa   
    ## 10 Comoros                  Africa   
    ## # ... with 132 more rows
…
The code does filter gapminder’s data to Rwanda and Afghanistan, but it
is not complete. It is missing data from certain years for both Rwanda
and Afghanistan. Instead, the code should be:

``` r
gapminder_AfRw <- gapminder %>%
  filter(country == 'Afghanistan' | country == 'Rwanda')
gapminder_AfRw
```

    ## # A tibble: 24 x 6
    ##    country     continent  year lifeExp      pop gdpPercap
    ##    <fct>       <fct>     <int>   <dbl>    <int>     <dbl>
    ##  1 Afghanistan Asia       1952    28.8  8425333      779.
    ##  2 Afghanistan Asia       1957    30.3  9240934      821.
    ##  3 Afghanistan Asia       1962    32.0 10267083      853.
    ##  4 Afghanistan Asia       1967    34.0 11537966      836.
    ##  5 Afghanistan Asia       1972    36.1 13079460      740.
    ##  6 Afghanistan Asia       1977    38.4 14880372      786.
    ##  7 Afghanistan Asia       1982    39.9 12881816      978.
    ##  8 Afghanistan Asia       1987    40.8 13867957      852.
    ##  9 Afghanistan Asia       1992    41.7 16317921      649.
    ## 10 Afghanistan Asia       1997    41.8 22227415      635.
    ## # ... with 14 more rows
