…
Now, I will relengthen the dataset.

``` r
JaChTh_long <- JaChTh_wide %>%
  pivot_longer(cols = -year,
               names_to = "Country",
               values_to = "Life Expectancy")
#For cols, I could also insert Japan:Thailand
JaChTh_long
```

    ## # A tibble: 36 x 3
    ##     year Country  `Life Expectancy`
    ##    <int> <chr>                <dbl>
    ##  1  1952 China                 44  
    ##  2  1952 Japan                 63.0
    ##  3  1952 Thailand              50.8
    ##  4  1957 China                 50.5
    ##  5  1957 Japan                 65.5
    ##  6  1957 Thailand              53.6
    ##  7  1962 China                 44.5
    ##  8  1962 Japan                 68.7
    ##  9  1962 Thailand              56.1
    ## 10  1967 China                 58.4
    ## # ... with 26 more rows
…
Next, I will lengthen the data.

``` r
meanlifegdp_long <- meanlifegdp_wide %>%
  pivot_longer(cols = contains("mean"), 
               names_to = c(".value", "continent"),
               names_sep = "_")
meanlifegdp_long
```

    ## # A tibble: 60 x 4
    ##     year continent meanlife meangdp
    ##    <int> <chr>        <dbl>   <dbl>
    ##  1  1952 Africa        39.1   1253.
    ##  2  1952 Americas      53.3   4079.
    ##  3  1952 Asia          46.3   5195.
    ##  4  1952 Europe        64.4   5661.
    ##  5  1952 Oceania       69.3  10298.
    ##  6  1957 Africa        41.3   1385.
    ##  7  1957 Americas      56.0   4616.
    ##  8  1957 Asia          49.3   5788.
    ##  9  1957 Europe        66.7   6963.
    ## 10  1957 Oceania       70.3  11599.
    ## # ... with 50 more rows
**Table Joins**

For this exercise, I am going to add the appropriate email address for
every guest. There are certain guests that do not have an email.

``` r
email_new <- separate_rows(email, guest, sep=", ") %>%
  rename(name = guest)

guest_email <- guest %>% 
  left_join(email_new, by = "name")
guest_email
```

    ## # A tibble: 30 x 8
    ##    party name  meal_wedding meal_brunch attendance_wedd~ attendance_brun~
    ##    <dbl> <chr> <chr>        <chr>       <chr>            <chr>           
    ##  1     1 Somm~ PENDING      PENDING     PENDING          PENDING         
    ##  2     1 Phil~ vegetarian   Menu C      CONFIRMED        CONFIRMED       
    ##  3     1 Blan~ chicken      Menu A      CONFIRMED        CONFIRMED       
    ##  4     1 Emaa~ PENDING      PENDING     PENDING          PENDING         
    ##  5     2 Blai~ chicken      Menu C      CONFIRMED        CONFIRMED       
    ##  6     2 Nige~ <NA>         <NA>        CANCELLED        CANCELLED       
    ##  7     3 Sine~ PENDING      PENDING     PENDING          PENDING         
    ##  8     4 Ayra~ vegetarian   Menu B      PENDING          PENDING         
    ##  9     5 Atla~ PENDING      PENDING     PENDING          PENDING         
    ## 10     5 Denz~ fish         Menu B      CONFIRMED        CONFIRMED       
    ## # ... with 20 more rows, and 2 more variables: attendance_golf <chr>,
    ## #   email <chr>
…
This list includes everyone that we have emails for, and everyone on the
original guest list.

``` r
email_notguest %>%
  bind_rows(guest_email) %>%
  select(name, email)
```

    ## # A tibble: 33 x 2
    ##    name            email                          
    ##    <chr>           <chr>                          
    ##  1 Turner Jones    tjjones12@hotmail.ca           
    ##  2 Albert Marshall themarshallfamily1234@gmail.com
    ##  3 Vivian Marshall themarshallfamily1234@gmail.com
    ##  4 Sommer Medrano  sommm@gmail.com                
    ##  5 Phillip Medrano sommm@gmail.com                
    ##  6 Blanka Medrano  sommm@gmail.com                
    ##  7 Emaan Medrano   sommm@gmail.com                
    ##  8 Blair Park      bpark@gmail.com                
    ##  9 Nigel Webb      bpark@gmail.com                
    ## 10 Sinead English  singlish@hotmail.ca            
    ## # ... with 23 more rows
